// Jest Snapshot v1, https://goo.gl/fbAQLP

exports[`Reservation Component Tests Test1: Table should be selected/unselected by click 1`] = `
<div>
  <div>
    <div
      class="css-n6xhye"
    >
      <div>
        <div
          class="css-1xk49i"
        >
          Choose date and table
        </div>
        <div
          class="css-1i7340g"
        >
          March
           
          17
           
          Sunday
        </div>
      </div>
      <div
        class="css-1muz9l"
      >
        <div>
          <table>
            <tbody>
              <tr>
                <td>
                  <div>
                    <svg
                      class="css-vxk6ju"
                      data-reserved="false"
                      data-selected="false"
                      data-testid="t1"
                    >
                      <div />
                      <rect
                        class="css-11ruboc"
                        data-testid="t110"
                        height="20"
                        width="20"
                        x="20"
                        y="0"
                      />
                      <rect
                        class="css-11ruboc"
                        data-testid="t101"
                        height="20"
                        width="20"
                        x="0"
                        y="20"
                      />
                      <rect
                        class="css-11ruboc"
                        data-testid="t111"
                        height="20"
                        width="20"
                        x="20"
                        y="20"
                      />
                      <rect
                        class="css-11ruboc"
                        data-testid="t102"
                        height="20"
                        width="20"
                        x="0"
                        y="40"
                      />
                      <div />
                    </svg>
                  </div>
                </td>
                <td>
                  <div>
                    <svg
                      class="css-vxk6ju"
                      data-reserved="false"
                      data-selected="false"
                      data-testid="t2"
                    >
                      <rect
                        class="css-11ruboc"
                        data-testid="t200"
                        height="20"
                        width="20"
                        x="0"
                        y="0"
                      />
                      <rect
                        class="css-11ruboc"
                        data-testid="t210"
                        height="20"
                        width="20"
                        x="20"
                        y="0"
                      />
                      <rect
                        class="css-11ruboc"
                        data-testid="t220"
                        height="20"
                        width="20"
                        x="40"
                        y="0"
                      />
                      <div />
                      <rect
                        class="css-11ruboc"
                        data-testid="t211"
                        height="20"
                        width="20"
                        x="20"
                        y="20"
                      />
                      <div />
                    </svg>
                  </div>
                </td>
                <td>
                  <div>
                    <svg
                      class="css-vxk6ju"
                      data-reserved="false"
                      data-selected="false"
                      data-testid="t3"
                    >
                      <rect
                        class="css-11ruboc"
                        data-testid="t300"
                        height="20"
                        width="20"
                        x="0"
                        y="0"
                      />
                      <rect
                        class="css-11ruboc"
                        data-testid="t310"
                        height="20"
                        width="20"
                        x="20"
                        y="0"
                      />
                      <div />
                      <rect
                        class="css-11ruboc"
                        data-testid="t311"
                        height="20"
                        width="20"
                        x="20"
                        y="20"
                      />
                      <div />
                      <rect
                        class="css-11ruboc"
                        data-testid="t312"
                        height="20"
                        width="20"
                        x="20"
                        y="40"
                      />
                    </svg>
                  </div>
                </td>
              </tr>
              <tr>
                <td>
                  <div>
                    <svg
                      class="css-vxk6ju"
                      data-reserved="false"
                      data-selected="false"
                      data-testid="t4"
                    >
                      <rect
                        class="css-11ruboc"
                        data-testid="t400"
                        height="20"
                        width="20"
                        x="0"
                        y="0"
                      />
                      <rect
                        class="css-11ruboc"
                        data-testid="t410"
                        height="20"
                        width="20"
                        x="20"
                        y="0"
                      />
                      <rect
                        class="css-11ruboc"
                        data-testid="t401"
                        height="20"
                        width="20"
                        x="0"
                        y="20"
                      />
                      <div />
                      <rect
                        class="css-11ruboc"
                        data-testid="t402"
                        height="20"
                        width="20"
                        x="0"
                        y="40"
                      />
                      <div />
                    </svg>
                  </div>
                </td>
                <td>
                  <div>
                    <svg
                      class="css-vxk6ju"
                      data-reserved="false"
                      data-selected="false"
                      data-testid="t5"
                    >
                      <rect
                        class="css-11ruboc"
                        data-testid="t500"
                        height="20"
                        width="20"
                        x="0"
                        y="0"
                      />
                      <rect
                        class="css-11ruboc"
                        data-testid="t510"
                        height="20"
                        width="20"
                        x="20"
                        y="0"
                      />
                      <rect
                        class="css-11ruboc"
                        data-testid="t501"
                        height="20"
                        width="20"
                        x="0"
                        y="20"
                      />
                      <rect
                        class="css-11ruboc"
                        data-testid="t511"
                        height="20"
                        width="20"
                        x="20"
                        y="20"
                      />
                    </svg>
                  </div>
                </td>
                <td>
                  <div>
                    <svg
                      class="css-vxk6ju"
                      data-reserved="false"
                      data-selected="false"
                      data-testid="t6"
                    >
                      <rect
                        class="css-11ruboc"
                        data-testid="t600"
                        height="20"
                        width="20"
                        x="0"
                        y="0"
                      />
                      <div />
                      <rect
                        class="css-11ruboc"
                        data-testid="t601"
                        height="20"
                        width="20"
                        x="0"
                        y="20"
                      />
                      <rect
                        class="css-11ruboc"
                        data-testid="t611"
                        height="20"
                        width="20"
                        x="20"
                        y="20"
                      />
                      <div />
                      <rect
                        class="css-11ruboc"
                        data-testid="t612"
                        height="20"
                        width="20"
                        x="20"
                        y="40"
                      />
                    </svg>
                  </div>
                </td>
              </tr>
            </tbody>
          </table>
          <table>
            <tbody>
              <tr>
                <td>
                  <div>
                    <svg
                      class="css-vxk6ju"
                      data-reserved="false"
                      data-selected="false"
                      data-testid="t7"
                    >
                      <rect
                        class="css-11ruboc"
                        data-testid="t700"
                        height="20"
                        width="20"
                        x="0"
                        y="0"
                      />
                      <div />
                      <rect
                        class="css-11ruboc"
                        data-testid="t701"
                        height="20"
                        width="20"
                        x="0"
                        y="20"
                      />
                      <rect
                        class="css-11ruboc"
                        data-testid="t711"
                        height="20"
                        width="20"
                        x="20"
                        y="20"
                      />
                      <rect
                        class="css-11ruboc"
                        data-testid="t702"
                        height="20"
                        width="20"
                        x="0"
                        y="40"
                      />
                      <div />
                    </svg>
                  </div>
                </td>
                <td>
                  <div>
                    <svg
                      class="css-vxk6ju"
                      data-reserved="false"
                      data-selected="false"
                      data-testid="t8"
                    >
                      <rect
                        class="css-11ruboc"
                        data-testid="t800"
                        height="20"
                        width="20"
                        x="0"
                        y="0"
                      />
                      <rect
                        class="css-11ruboc"
                        data-testid="t810"
                        height="20"
                        width="20"
                        x="20"
                        y="0"
                      />
                      <rect
                        class="css-11ruboc"
                        data-testid="t801"
                        height="20"
                        width="20"
                        x="0"
                        y="20"
                      />
                      <rect
                        class="css-11ruboc"
                        data-testid="t811"
                        height="20"
                        width="20"
                        x="20"
                        y="20"
                      />
                    </svg>
                  </div>
                </td>
                <td>
                  <div>
                    <svg
                      class="css-vxk6ju"
                      data-reserved="false"
                      data-selected="false"
                      data-testid="t9"
                    >
                      <div />
                      <rect
                        class="css-11ruboc"
                        data-testid="t910"
                        height="20"
                        width="20"
                        x="20"
                        y="0"
                      />
                      <rect
                        class="css-11ruboc"
                        data-testid="t901"
                        height="20"
                        width="20"
                        x="0"
                        y="20"
                      />
                      <rect
                        class="css-11ruboc"
                        data-testid="t911"
                        height="20"
                        width="20"
                        x="20"
                        y="20"
                      />
                      <div />
                      <rect
                        class="css-11ruboc"
                        data-testid="t912"
                        height="20"
                        width="20"
                        x="20"
                        y="40"
                      />
                    </svg>
                  </div>
                </td>
              </tr>
              <tr>
                <td>
                  <div>
                    <svg
                      class="css-vxk6ju"
                      data-reserved="false"
                      data-selected="false"
                      data-testid="t10"
                    >
                      <rect
                        class="css-11ruboc"
                        data-testid="t1000"
                        height="20"
                        width="20"
                        x="0"
                        y="0"
                      />
                      <div />
                      <rect
                        class="css-11ruboc"
                        data-testid="t1001"
                        height="20"
                        width="20"
                        x="0"
                        y="20"
                      />
                      <div />
                      <rect
                        class="css-11ruboc"
                        data-testid="t1002"
                        height="20"
                        width="20"
                        x="0"
                        y="40"
                      />
                      <rect
                        class="css-11ruboc"
                        data-testid="t1012"
                        height="20"
                        width="20"
                        x="20"
                        y="40"
                      />
                    </svg>
                  </div>
                </td>
                <td>
                  <div>
                    <svg
                      class="css-vxk6ju"
                      data-reserved="false"
                      data-selected="false"
                      data-testid="t11"
                    >
                      <rect
                        class="css-11ruboc"
                        data-testid="t1100"
                        height="20"
                        width="20"
                        x="0"
                        y="0"
                      />
                      <div />
                      <rect
                        class="css-11ruboc"
                        data-testid="t1101"
                        height="20"
                        width="20"
                        x="0"
                        y="20"
                      />
                      <rect
                        class="css-11ruboc"
                        data-testid="t1111"
                        height="20"
                        width="20"
                        x="20"
                        y="20"
                      />
                      <div />
                      <rect
                        class="css-11ruboc"
                        data-testid="t1112"
                        height="20"
                        width="20"
                        x="20"
                        y="40"
                      />
                    </svg>
                  </div>
                </td>
                <td>
                  <div>
                    <svg
                      class="css-vxk6ju"
                      data-reserved="false"
                      data-selected="false"
                      data-testid="t12"
                    >
                      <div />
                      <rect
                        class="css-11ruboc"
                        data-testid="t1210"
                        height="20"
                        width="20"
                        x="20"
                        y="0"
                      />
                      <div />
                      <rect
                        class="css-11ruboc"
                        data-testid="t1211"
                        height="20"
                        width="20"
                        x="20"
                        y="20"
                      />
                      <rect
                        class="css-11ruboc"
                        data-testid="t1202"
                        height="20"
                        width="20"
                        x="0"
                        y="40"
                      />
                      <rect
                        class="css-11ruboc"
                        data-testid="t1212"
                        height="20"
                        width="20"
                        x="20"
                        y="40"
                      />
                    </svg>
                  </div>
                </td>
              </tr>
            </tbody>
          </table>
        </div>
        <div>
          <table>
            <tbody>
              <tr>
                <td>
                  <div>
                    <svg
                      class="css-vxk6ju"
                      data-reserved="false"
                      data-selected="false"
                      data-testid="t13"
                    >
                      <div />
                      <rect
                        class="css-11ruboc"
                        data-testid="t1310"
                        height="20"
                        width="20"
                        x="20"
                        y="0"
                      />
                      <rect
                        class="css-11ruboc"
                        data-testid="t1320"
                        height="20"
                        width="20"
                        x="40"
                        y="0"
                      />
                      <rect
                        class="css-11ruboc"
                        data-testid="t1301"
                        height="20"
                        width="20"
                        x="0"
                        y="20"
                      />
                      <rect
                        class="css-11ruboc"
                        data-testid="t1311"
                        height="20"
                        width="20"
                        x="20"
                        y="20"
                      />
                      <div />
                    </svg>
                  </div>
                </td>
                <td>
                  <div>
                    <svg
                      class="css-vxk6ju"
                      data-reserved="false"
                      data-selected="false"
                      data-testid="t14"
                    >
                      <rect
                        class="css-11ruboc"
                        data-testid="t1400"
                        height="20"
                        width="20"
                        x="0"
                        y="0"
                      />
                      <rect
                        class="css-11ruboc"
                        data-testid="t1410"
                        height="20"
                        width="20"
                        x="20"
                        y="0"
                      />
                      <rect
                        class="css-11ruboc"
                        data-testid="t1420"
                        height="20"
                        width="20"
                        x="40"
                        y="0"
                      />
                      <div />
                      <rect
                        class="css-11ruboc"
                        data-testid="t1411"
                        height="20"
                        width="20"
                        x="20"
                        y="20"
                      />
                      <div />
                    </svg>
                  </div>
                </td>
                <td>
                  <div>
                    <svg
                      class="css-vxk6ju"
                      data-reserved="false"
                      data-selected="false"
                      data-testid="t15"
                    >
                      <rect
                        class="css-11ruboc"
                        data-testid="t1500"
                        height="20"
                        width="20"
                        x="0"
                        y="0"
                      />
                      <rect
                        class="css-11ruboc"
                        data-testid="t1510"
                        height="20"
                        width="20"
                        x="20"
                        y="0"
                      />
                      <rect
                        class="css-11ruboc"
                        data-testid="t1520"
                        height="20"
                        width="20"
                        x="40"
                        y="0"
                      />
                      <rect
                        class="css-11ruboc"
                        data-testid="t1501"
                        height="20"
                        width="20"
                        x="0"
                        y="20"
                      />
                      <div />
                      <div />
                    </svg>
                  </div>
                </td>
              </tr>
              <tr>
                <td>
                  <div>
                    <svg
                      class="css-vxk6ju"
                      data-reserved="false"
                      data-selected="false"
                      data-testid="t16"
                    >
                      <rect
                        class="css-11ruboc"
                        data-testid="t1600"
                        height="20"
                        width="20"
                        x="0"
                        y="0"
                      />
                      <div />
                      <div />
                      <rect
                        class="css-11ruboc"
                        data-testid="t1601"
                        height="20"
                        width="20"
                        x="0"
                        y="20"
                      />
                      <rect
                        class="css-11ruboc"
                        data-testid="t1611"
                        height="20"
                        width="20"
                        x="20"
                        y="20"
                      />
                      <rect
                        class="css-11ruboc"
                        data-testid="t1621"
                        height="20"
                        width="20"
                        x="40"
                        y="20"
                      />
                    </svg>
                  </div>
                </td>
                <td>
                  <div>
                    <svg
                      class="css-vxk6ju"
                      data-reserved="false"
                      data-selected="false"
                      data-testid="t17"
                    >
                      <div />
                      <rect
                        class="css-11ruboc"
                        data-testid="t1710"
                        height="20"
                        width="20"
                        x="20"
                        y="0"
                      />
                      <div />
                      <rect
                        class="css-11ruboc"
                        data-testid="t1701"
                        height="20"
                        width="20"
                        x="0"
                        y="20"
                      />
                      <rect
                        class="css-11ruboc"
                        data-testid="t1711"
                        height="20"
                        width="20"
                        x="20"
                        y="20"
                      />
                      <rect
                        class="css-11ruboc"
                        data-testid="t1721"
                        height="20"
                        width="20"
                        x="40"
                        y="20"
                      />
                    </svg>
                  </div>
                </td>
                <td>
                  <div>
                    <svg
                      class="css-vxk6ju"
                      data-reserved="false"
                      data-selected="false"
                      data-testid="t18"
                    >
                      <div />
                      <div />
                      <rect
                        class="css-11ruboc"
                        data-testid="t1820"
                        height="20"
                        width="20"
                        x="40"
                        y="0"
                      />
                      <rect
                        class="css-11ruboc"
                        data-testid="t1801"
                        height="20"
                        width="20"
                        x="0"
                        y="20"
                      />
                      <rect
                        class="css-11ruboc"
                        data-testid="t1811"
                        height="20"
                        width="20"
                        x="20"
                        y="20"
                      />
                      <rect
                        class="css-11ruboc"
                        data-testid="t1821"
                        height="20"
                        width="20"
                        x="40"
                        y="20"
                      />
                    </svg>
                  </div>
                </td>
              </tr>
            </tbody>
          </table>
          <div
            class="css-13sf5fa"
          >
            <div
              class="css-r7dy9w"
            >
              <svg
                class="css-6jm447"
              >
                <rect
                  class="css-4m10il"
                />
              </svg>
              <div>
                 free
              </div>
            </div>
            <div
              class="css-r7dy9w"
            >
              <svg
                class="css-6jm447"
              >
                <rect
                  class="css-m2wglr"
                />
              </svg>
              <div>
                 reserved
              </div>
            </div>
            <div
              class="css-r7dy9w"
            >
              <svg
                class="css-6jm447"
              >
                <rect
                  class="css-1ji76w5"
                />
              </svg>
              <div>
                 in progress
              </div>
            </div>
          </div>
        </div>
        <div>
          <div
            class="css-1jb7b87"
          >
            <div
              class="react-datepicker-wrapper"
            >
              <div
                class="react-datepicker__input-container"
              >
                <input
                  class=""
                  type="text"
                  value="2024-3-17"
                />
              </div>
            </div>
          </div>
          <div
            class="css-c6y2j0"
            data-testid="reservation"
          >
            Reserve
          </div>
        </div>
      </div>
    </div>
  </div>
</div>
`;
